How to use RSDA 3.3
…
result  <- classic.to.sym(x = USCrime,
                          concept = state, 
                          variables= c(NumInShelters,
                                       NumImmig,
                                       ViolentCrimesPerPop),
                          ViolentCrimesPerPop_hist = sym.histogram(ViolentCrimesPerPop,
                                                                   breaks = pretty(USCrime$ViolentCrimesPerPop,5)))
result
#> # A tibble: 46 × 4
#>    ViolentCrimesPerPop_hist NumInShelters      NumImmig ViolentCrimesPerPop
#>                  <symblc_h>    <symblc_n>    <symblc_n>          <symblc_n>
#>  1                   <hist> [0.00 : 0.32] [0.00 : 0.04]       [0.01 : 1.00]
#>  2                   <hist> [0.01 : 0.18] [0.01 : 0.09]       [0.05 : 0.36]
#>  3                   <hist> [0.00 : 1.00] [0.00 : 0.57]       [0.05 : 0.57]
#>  4                   <hist> [0.00 : 0.08] [0.00 : 0.02]       [0.02 : 1.00]
#>  5                   <hist> [0.00 : 1.00] [0.00 : 1.00]       [0.01 : 1.00]
#>  6                   <hist> [0.00 : 0.68] [0.00 : 0.23]       [0.07 : 0.75]
#>  7                   <hist> [0.00 : 0.79] [0.00 : 0.14]       [0.00 : 0.94]
#>  8                   <hist> [0.01 : 0.01] [0.01 : 0.01]       [0.37 : 0.37]
#>  9                   <hist> [1.00 : 1.00] [0.39 : 0.39]       [1.00 : 1.00]
#> 10                   <hist> [0.00 : 0.52] [0.00 : 1.00]       [0.06 : 1.00]
#> # … with 36 more rows
…
sym.table <- classic.to.sym(x = ex_mcfa1, 
                            concept = suspect, 
                            variables=c(hair,
                                        eyes,
                                        region),
                            default.categorical = sym.set)
sym.table
#> # A tibble: 100 × 3
#>                  hair              eyes               region
#>            <symblc_s>        <symblc_s>           <symblc_s>
#>  1            {h_red} {e_brown,e_black}              {Bronx}
#>  2 {h_black,h_blonde} {e_green,e_black}    {Bronx,Manhattan}
#>  3  {h_brown,h_white} {e_brown,e_green}    {Brooklyn,Queens}
#>  4         {h_blonde} {e_brown,e_black}    {Bronx,Manhattan}
#>  5    {h_brown,h_red}         {e_green}    {Manhattan,Bronx}
#>  6 {h_blonde,h_white}  {e_green,e_blue}       {Bronx,Queens}
#>  7    {h_white,h_red}  {e_black,e_blue}       {Queens,Bronx}
#>  8 {h_blonde,h_white} {e_brown,e_black} {Manhattan,Brooklyn}
#>  9 {h_blonde,h_white} {e_black,e_brown}     {Brooklyn,Bronx}
#> 10  {h_brown,h_black} {e_brown,e_green}    {Manhattan,Bronx}
#> # … with 90 more rows

Example 4

We can modify the function that will be applied by default to the
categorical variables

sym.table <- classic.to.sym(x = ex_mcfa1, 
                            concept = suspect,
                            default.categorical = sym.set)
sym.table
#> # A tibble: 100 × 4
#>                age               hair              eyes               region
#>         <symblc_n>         <symblc_s>        <symblc_s>           <symblc_s>
#>  1 [22.00 : 42.00]            {h_red} {e_brown,e_black}              {Bronx}
#>  2 [20.00 : 57.00] {h_black,h_blonde} {e_green,e_black}    {Bronx,Manhattan}
#>  3 [29.00 : 64.00]  {h_brown,h_white} {e_brown,e_green}    {Brooklyn,Queens}
#>  4 [14.00 : 55.00]         {h_blonde} {e_brown,e_black}    {Bronx,Manhattan}
#>  5  [4.00 : 47.00]    {h_brown,h_red}         {e_green}    {Manhattan,Bronx}
#>  6 [32.00 : 61.00] {h_blonde,h_white}  {e_green,e_blue}       {Bronx,Queens}
#>  7 [49.00 : 61.00]    {h_white,h_red}  {e_black,e_blue}       {Queens,Bronx}
#>  8  [8.00 : 32.00] {h_blonde,h_white} {e_brown,e_black} {Manhattan,Brooklyn}
#>  9 [39.00 : 67.00] {h_blonde,h_white} {e_black,e_brown}     {Brooklyn,Bronx}
#> 10 [50.00 : 68.00]  {h_brown,h_black} {e_brown,e_green}    {Manhattan,Bronx}
#> # … with 90 more rows
…
Converting a SODAS 2.0 *.XML files to RSDA files

abalone <- SODAS.to.RSDA("abalone.xml")
#> Processing variable 1: LENGTH
#> Processing variable 2: DIAMETER
#> Processing variable 3: HEIGHT
#> Processing variable 4: WHOLE_WEIGHT
#> Processing variable 5: SHUCKED_WEIGHT
#> Processing variable 6: VISCERA_WEIGHT
#> Processing variable 7: SHELL_WEIGHT
abalone
#> # A tibble: 24 × 7
#>           LENGTH      DIAMETER        HEIGHT  WHOLE_WEIGHT SHUCKED_WEIGHT
#>       <symblc_n>    <symblc_n>    <symblc_n>    <symblc_n>     <symblc_n>
#>  1 [0.28 : 0.66] [0.20 : 0.48] [0.07 : 0.18] [0.08 : 1.37]  [0.03 : 0.64]
#>  2 [0.30 : 0.74] [0.22 : 0.58] [0.02 : 1.13] [0.15 : 2.25]  [0.06 : 1.16]
#>  3 [0.34 : 0.78] [0.26 : 0.63] [0.06 : 0.23] [0.20 : 2.66]  [0.07 : 1.49]
#>  4 [0.39 : 0.82] [0.30 : 0.65] [0.10 : 0.25] [0.26 : 2.51]  [0.11 : 1.23]
#>  5 [0.40 : 0.74] [0.32 : 0.60] [0.10 : 0.24] [0.35 : 2.20]  [0.12 : 0.84]
#>  6 [0.45 : 0.80] [0.38 : 0.63] [0.14 : 0.22] [0.64 : 2.53]  [0.16 : 0.93]
#>  7 [0.49 : 0.72] [0.36 : 0.58] [0.12 : 0.21] [0.68 : 2.12]  [0.16 : 0.82]
#>  8 [0.55 : 0.70] [0.46 : 0.58] [0.18 : 0.22] [1.21 : 1.81]  [0.32 : 0.71]
#>  9 [0.08 : 0.24] [0.06 : 0.18] [0.01 : 0.06] [0.00 : 0.07]  [0.00 : 0.03]
#> 10 [0.13 : 0.58] [0.10 : 0.45] [0.00 : 0.15] [0.01 : 0.89]  [0.00 : 0.50]
#> # … with 14 more rows, and 2 more variables: VISCERA_WEIGHT <symblc_n>,
#> #   SHELL_WEIGHT <symblc_n>
…
sym.table <- classic.to.sym(x = ex_mcfa1, 
                            concept = suspect, 
                            default.categorical = sym.set)
sym.table
#> # A tibble: 100 × 4
#>                age               hair              eyes               region
#>         <symblc_n>         <symblc_s>        <symblc_s>           <symblc_s>
#>  1 [22.00 : 42.00]            {h_red} {e_brown,e_black}              {Bronx}
#>  2 [20.00 : 57.00] {h_black,h_blonde} {e_green,e_black}    {Bronx,Manhattan}
#>  3 [29.00 : 64.00]  {h_brown,h_white} {e_brown,e_green}    {Brooklyn,Queens}
#>  4 [14.00 : 55.00]         {h_blonde} {e_brown,e_black}    {Bronx,Manhattan}
#>  5  [4.00 : 47.00]    {h_brown,h_red}         {e_green}    {Manhattan,Bronx}
#>  6 [32.00 : 61.00] {h_blonde,h_white}  {e_green,e_blue}       {Bronx,Queens}
#>  7 [49.00 : 61.00]    {h_white,h_red}  {e_black,e_blue}       {Queens,Bronx}
#>  8  [8.00 : 32.00] {h_blonde,h_white} {e_brown,e_black} {Manhattan,Brooklyn}
#>  9 [39.00 : 67.00] {h_blonde,h_white} {e_black,e_brown}     {Brooklyn,Bronx}
#> 10 [50.00 : 68.00]  {h_brown,h_black} {e_brown,e_green}    {Manhattan,Bronx}
#> # … with 90 more rows
…
